<?xml version="1.0" encoding="UTF-8" standalone="no"?>
<svg
   xmlns:dc="http://purl.org/dc/elements/1.1/"
   xmlns:cc="http://creativecommons.org/ns#"
   xmlns:rdf="http://www.w3.org/1999/02/22-rdf-syntax-ns#"
   xmlns:svg="http://www.w3.org/2000/svg"
   xmlns="http://www.w3.org/2000/svg"
   version="1.2"
   width="1600"
   height="1200">
  <metadata>
    <rdf:RDF>
      <cc:Work rdf:about="">
        <dc:format>image/svg+xml</dc:format>
        <dc:type rdf:resource="http://purl.org/dc/dcmitype/StillImage" />
        <dc:title>Schéma simplifié d'une partie avec les règles de base</dc:title>
      </cc:Work>
    </rdf:RDF>
  </metadata>
  <g>
    <rect
       width="1600"
       height="1200"
       x="0"
       y="0"
       id="rect3761"
       style="fill:#1a1a1a" />
    <text
       x="29.98958"
       y="98.073265"
       id="text4143"
       xml:space="preserve"
       style="font-size:40px;font-style:normal;font-weight:normal;line-height:125%;letter-spacing:0px;word-spacing:0px;fill:#000000;fill-opacity:1;stroke:none;font-family:Sans"><tspan
         x="29.98958"
         y="98.073265"
         id="tspan4145"
         style="fill:#e6e6e6"><tspan
           x="29.98958"
           y="98.073265"
           id="tspan4147"
           style="font-size:80px;fill:#e6e6e6">Un univers</tspan></tspan></text>
    <text
       x="40"
       y="1139.7296"
       id="text4155"
       xml:space="preserve"
       style="font-size:40px;font-style:normal;font-weight:normal;line-height:125%;letter-spacing:0px;word-spacing:0px;fill:#3232ff;fill-opacity:1;stroke:none;font-family:Sans"><tspan
         x="40"
         y="1139.7296"
         id="tspan4157"
         style="fill:#3232ff;fill-opacity:1"><tspan
           x="40"
           y="1139.7296"
           id="tspan4159"
           style="font-size:80px;fill:#3232ff;fill-opacity:1">Le joueur</tspan></tspan></text>
    <text
       x="1016.6562"
       y="1146.3962"
       id="text4161"
       xml:space="preserve"
       style="font-size:40px;font-style:normal;font-weight:normal;line-height:125%;letter-spacing:0px;word-spacing:0px;fill:#d40000;fill-opacity:1;stroke:none;font-family:Sans"><tspan
         x="1016.6562"
         y="1146.3962"
         id="tspan4163"><tspan
           x="1016.6562"
           y="1146.3962"
           id="tspan4165"
           style="font-size:80px">Un adversaire</tspan></tspan></text>
    <path
       d="m 1410,800.83331 a 135.83335,110.83334 0 1 1 -271.6667,0 135.83335,110.83334 0 1 1 271.6667,0 z"
       transform="translate(118.33334,-228.33334)"
       id="path3797"
       style="fill:#d40000" />
    <path
       d="m 1410,800.83331 a 135.83335,110.83334 0 1 1 -271.6667,0 135.83335,110.83334 0 1 1 271.6667,0 z"
       transform="translate(-1037.5,-252.49998)"
       id="path3797-7"
       style="fill:#3232ff;fill-opacity:1" />
    <path
       d="m 1410,800.83331 a 135.83335,110.83334 0 1 1 -271.6667,0 135.83335,110.83334 0 1 1 271.6667,0 z"
       transform="translate(-1034.1666,45.833354)"
       id="path3797-3"
       style="fill:#3232ff;fill-opacity:1" />
    <text
       x="38.322918"
       y="353.14871"
       id="text4149"
       xml:space="preserve"
       style="font-size:40px;font-style:normal;font-weight:normal;line-height:125%;letter-spacing:0px;word-spacing:0px;fill:#3232ff;fill-opacity:1;stroke:none;font-family:Sans"><tspan
         x="38.322918"
         y="353.14871"
         id="tspan4151"
         style="fill:#3232ff;fill-opacity:1"><tspan
           x="38.322918"
           y="353.14871"
           id="tspan4153"
           style="font-size:60px;fill:#3232ff;fill-opacity:1">2 systèmes solaires</tspan></tspan></text>
    <text
       x="1023.6182"
       y="351.08725"
       id="text4167"
       xml:space="preserve"
       style="font-size:40px;font-style:normal;font-weight:normal;line-height:125%;letter-spacing:0px;word-spacing:0px;fill:#d40000;fill-opacity:1;stroke:none;font-family:Sans"><tspan
         x="1023.6182"
         y="351.08725"
         id="tspan4169"><tspan
           x="1023.6182"
           y="351.08725"
           id="tspan4171"
           style="font-size:60px;fill:#d40000">1 système solaire</tspan></tspan></text>
    <path
       d="m 521.66668,586.66669 a 10.833335,8.3333345 0 1 1 -21.66667,0 10.833335,8.3333345 0 1 1 21.66667,0 z"
       transform="translate(-119.02964,-141.42136)"
       id="path3859"
       style="fill:#3232ff;fill-opacity:1" />
    <path
       d="m 521.66668,586.66669 a 10.833335,8.3333345 0 1 1 -21.66667,0 10.833335,8.3333345 0 1 1 21.66667,0 z"
       transform="translate(-70.671787,-29.852835)"
       id="path3859-3"
       style="fill:#3232ff;fill-opacity:1" />
    <path
       d="m 521.66668,586.66669 a 10.833335,8.3333345 0 1 1 -21.66667,0 10.833335,8.3333345 0 1 1 21.66667,0 z"
       transform="translate(-78.921366,-88.7784)"
       id="path3859-7"
       style="fill:#3232ff;fill-opacity:1" />
    <path
       d="m 521.66668,586.66669 a 10.833335,8.3333345 0 1 1 -21.66667,0 10.833335,8.3333345 0 1 1 21.66667,0 z"
       transform="translate(-76.838032,33.633637)"
       id="path3859-9"
       style="fill:#3232ff;fill-opacity:1" />
    <path
       d="m 521.66668,586.66669 a 10.833335,8.3333345 0 1 1 -21.66667,0 10.833335,8.3333345 0 1 1 21.66667,0 z"
       transform="translate(-107.96748,85.347266)"
       id="path3859-8"
       style="fill:#3232ff;fill-opacity:1" />
    <path
       d="m 521.66668,586.66669 a 10.833335,8.3333345 0 1 1 -21.66667,0 10.833335,8.3333345 0 1 1 21.66667,0 z"
       transform="translate(-112.91668,164.99998)"
       id="path3859-2"
       style="fill:#3232ff;fill-opacity:1" />
    <path
       d="m 521.66668,586.66669 a 10.833335,8.3333345 0 1 1 -21.66667,0 10.833335,8.3333345 0 1 1 21.66667,0 z"
       transform="translate(-83.333337,234.99998)"
       id="path3859-6"
       style="fill:#3232ff;fill-opacity:1" />
    <path
       d="m 521.66668,586.66669 a 10.833335,8.3333345 0 1 1 -21.66667,0 10.833335,8.3333345 0 1 1 21.66667,0 z"
       transform="translate(-83.33335,293.33332)"
       id="path3859-82"
       style="fill:#3232ff;fill-opacity:1" />
    <path
       d="m 521.66668,586.66669 a 10.833335,8.3333345 0 1 1 -21.66667,0 10.833335,8.3333345 0 1 1 21.66667,0 z"
       transform="translate(-121.66668,361.66665)"
       id="path3859-80"
       style="fill:#3232ff;fill-opacity:1" />
    <path
       d="m 521.66668,586.66669 a 10.833335,8.3333345 0 1 1 -21.66667,0 10.833335,8.3333345 0 1 1 21.66667,0 z"
       transform="translate(585.83332,38.333312)"
       id="path3859-1"
       style="fill:#3232ff;fill-opacity:1" />
    <path
       d="m 521.66668,586.66669 a 10.833335,8.3333345 0 1 1 -21.66667,0 10.833335,8.3333345 0 1 1 21.66667,0 z"
       transform="translate(535.83333,-26.666688)"
       id="path3859-74"
       style="fill:#3232ff;fill-opacity:1" />
    <path
       d="m 521.66668,586.66669 a 10.833335,8.3333345 0 1 1 -21.66667,0 10.833335,8.3333345 0 1 1 21.66667,0 z"
       transform="translate(460.83333,-67.50002)"
       id="path3859-93"
       style="fill:#3232ff;fill-opacity:1" />
    <path
       d="m 521.66668,586.66669 a 10.833335,8.3333345 0 1 1 -21.66667,0 10.833335,8.3333345 0 1 1 21.66667,0 z"
       transform="translate(496.66665,53.333312)"
       id="path3859-93-1"
       style="fill:#3232ff;fill-opacity:1" />
    <path
       d="m 521.66668,586.66669 a 10.833335,8.3333345 0 1 1 -21.66667,0 10.833335,8.3333345 0 1 1 21.66667,0 z"
       transform="translate(409.16665,59.166646)"
       id="path3859-93-9"
       style="fill:#3232ff;fill-opacity:1" />
    <path
       d="m 521.66668,586.66669 a 10.833335,8.3333345 0 1 1 -21.66667,0 10.833335,8.3333345 0 1 1 21.66667,0 z"
       transform="translate(359.99999,64.999979)"
       id="path3859-93-7"
       style="fill:#3232ff;fill-opacity:1" />
    <path
       d="m 521.66668,586.66669 a 10.833335,8.3333345 0 1 1 -21.66667,0 10.833335,8.3333345 0 1 1 21.66667,0 z"
       transform="translate(553.33333,119.99998)"
       id="path3859-93-0"
       style="fill:#3232ff;fill-opacity:1" />
    <path
       d="m 521.66668,586.66669 a 10.833335,8.3333345 0 1 1 -21.66667,0 10.833335,8.3333345 0 1 1 21.66667,0 z"
       transform="translate(491.66665,174.16665)"
       id="path3859-93-5"
       style="fill:#3232ff;fill-opacity:1" />
    <path
       d="m 521.66668,586.66669 a 10.833335,8.3333345 0 1 1 -21.66667,0 10.833335,8.3333345 0 1 1 21.66667,0 z"
       transform="translate(708.33333,49.166647)"
       id="path3859-93-3"
       style="fill:#ff0000" />
    <path
       d="m 521.66668,586.66669 a 10.833335,8.3333345 0 1 1 -21.66667,0 10.833335,8.3333345 0 1 1 21.66667,0 z"
       transform="translate(687.49999,-16.66669)"
       id="path3859-93-3-7"
       style="fill:#ff0000" />
    <path
       d="m 521.66668,586.66669 a 10.833335,8.3333345 0 1 1 -21.66667,0 10.833335,8.3333345 0 1 1 21.66667,0 z"
       transform="translate(586.66666,76.666646)"
       id="path3859-1-4"
       style="fill:#3232ff;fill-opacity:1" />
    <path
       d="m 521.66668,586.66669 a 10.833335,8.3333345 0 1 1 -21.66667,0 10.833335,8.3333345 0 1 1 21.66667,0 z"
       transform="translate(581.66666,0.83331299)"
       id="path3859-1-9"
       style="fill:#3232ff;fill-opacity:1" />
    <path
       d="m 521.66668,586.66669 a 10.833335,8.3333345 0 1 1 -21.66667,0 10.833335,8.3333345 0 1 1 21.66667,0 z"
       transform="translate(498.33333,-51.666688)"
       id="path3859-1-5"
       style="fill:#3232ff;fill-opacity:1" />
    <path
       d="m 521.66668,586.66669 a 10.833335,8.3333345 0 1 1 -21.66667,0 10.833335,8.3333345 0 1 1 21.66667,0 z"
       transform="translate(544.16666,46.666646)"
       id="path3859-1-3"
       style="fill:#3232ff;fill-opacity:1" />
    <path
       d="m 521.66668,586.66669 a 10.833335,8.3333345 0 1 1 -21.66667,0 10.833335,8.3333345 0 1 1 21.66667,0 z"
       transform="translate(457.49999,57.499979)"
       id="path3859-1-38"
       style="fill:#3232ff;fill-opacity:1" />
    <path
       d="m 521.66668,586.66669 a 10.833335,8.3333345 0 1 1 -21.66667,0 10.833335,8.3333345 0 1 1 21.66667,0 z"
       transform="translate(314.16666,68.333313)"
       id="path3859-1-98"
       style="fill:#3232ff;fill-opacity:1" />
    <path
       d="m 521.66668,586.66669 a 10.833335,8.3333345 0 1 1 -21.66667,0 10.833335,8.3333345 0 1 1 21.66667,0 z"
       transform="translate(544.99999,83.333313)"
       id="path3859-1-7"
       style="fill:#3232ff;fill-opacity:1" />
    <path
       d="m 521.66668,586.66669 a 10.833335,8.3333345 0 1 1 -21.66667,0 10.833335,8.3333345 0 1 1 21.66667,0 z"
       transform="translate(543.33332,9.9999789)"
       id="path3859-1-58"
       style="fill:#3232ff;fill-opacity:1" />
    <path
       d="m 521.66668,586.66669 a 10.833335,8.3333345 0 1 1 -21.66667,0 10.833335,8.3333345 0 1 1 21.66667,0 z"
       transform="translate(624.99999,31.666646)"
       id="path3859-1-6"
       style="fill:#3232ff;fill-opacity:1" />
    <path
       d="m 521.66668,586.66669 a 10.833335,8.3333345 0 1 1 -21.66667,0 10.833335,8.3333345 0 1 1 21.66667,0 z"
       transform="translate(529.16665,144.99998)"
       id="path3859-1-32"
       style="fill:#3232ff;fill-opacity:1" />
    <text
       x="706.65625"
       y="868.18121"
       id="text4173"
       xml:space="preserve"
       style="font-size:40px;font-style:normal;font-weight:normal;line-height:125%;letter-spacing:0px;word-spacing:0px;fill:#000000;fill-opacity:1;stroke:none;font-family:Sans"><tspan
         x="706.65625"
         y="868.18121"
         id="tspan4175"
         style="fill:#e6e6e6"><tspan
           x="706.65625"
           y="868.18121"
           dx="0 0 0 0 0 0 0 0 0 0 0 0 8.25 0 0 8.25 0 0 0 0 0 0 0 0 0 8.25"
           id="tspan4177"
           style="font-size:50px;text-align:justify;text-anchor:start;fill:#e6e6e6">Déplacement de vaisseaux pour </tspan></tspan><tspan
         x="706.65625"
         y="930.68121"
         id="tspan4179"
         style="fill:#e6e6e6"><tspan
           x="706.65625"
           id="tspan4181"
           style="font-size:50px;text-align:justify;text-anchor:start;fill:#e6e6e6">conquérir un système solaire</tspan></tspan></text>
  </g>
</svg>
